%YAML 1.1
%TAG !u! tag:unity3d.com,2011:
--- !u!114 &11400000
MonoBehaviour:
  m_ObjectHideFlags: 0
  m_CorrespondingSourceObject: {fileID: 0}
  m_PrefabInstance: {fileID: 0}
  m_PrefabAsset: {fileID: 0}
  m_GameObject: {fileID: 0}
  m_Enabled: 1
  m_EditorHideFlags: 0
  m_Script: {fileID: 11500000, guid: 08db25fde8528914b971474f686f9907, type: 3}
  m_Name: Boost
  m_EditorClassIdentifier: 
  uiName: Forward Thrusters
  uiDesc: 
  cooldown: 1.3
  model: {fileID: 0}
  cost: 0
  resourceUsage: 1
  rechargeRate: 0.3
  velocityModifier: {x: 0, y: 0, z: 200}
