%YAML 1.1
%TAG !u! tag:unity3d.com,2011:
--- !u!114 &11400000
MonoBehaviour:
  m_ObjectHideFlags: 0
  m_CorrespondingSourceObject: {fileID: 0}
  m_PrefabInstance: {fileID: 0}
  m_PrefabAsset: {fileID: 0}
  m_GameObject: {fileID: 0}
  m_Enabled: 1
  m_EditorHideFlags: 0
  m_Script: {fileID: 11500000, guid: b1721ecbf643308439435061c877117f, type: 3}
  m_Name: Lance
  m_EditorClassIdentifier: 
  uiName: Lance
  uiDesc: A long reaching polearm. Spear springs out a distance and must retract back
    in order to be used again.
  cooldown: 1.2
  model: {fileID: 7098494427891290799, guid: db31c1b0ec04de94085e687f91f8c323, type: 3}
  cost: 0
  projectileName: 
  ammo: 0
  ammoPerShot: 0
  projectileCount: 0
  damage: 0
  velocity: 0
  displacement: {x: 0, y: 0}
  spread: {x: 0, y: 0, z: 0}
  rows: 0
  weaponCrosshair: {fileID: 0}
  shotDelay: 0
