%YAML 1.1
%TAG !u! tag:unity3d.com,2011:
--- !u!114 &11400000
MonoBehaviour:
  m_ObjectHideFlags: 0
  m_CorrespondingSourceObject: {fileID: 0}
  m_PrefabInstance: {fileID: 0}
  m_PrefabAsset: {fileID: 0}
  m_GameObject: {fileID: 0}
  m_Enabled: 1
  m_EditorHideFlags: 0
  m_Script: {fileID: 11500000, guid: b1721ecbf643308439435061c877117f, type: 3}
  m_Name: Nuclear Grenade Launcher
  m_EditorClassIdentifier: 
  uiName: Nuclear Marker
  uiDesc: 
  cooldown: 5000
  model: {fileID: 0}
  cost: 2
  projectileName: SpicyBoi
  ammo: 1
  ammoPerShot: 1
  projectileCount: 1
  damage: 50
  velocity: 1000
  displacement: {x: 0, y: 0}
  spread: {x: 0, y: 0, z: 0}
  rows: 1
  muzzleFlashEffect: 
  weaponCrosshair: {fileID: 21300000, guid: fdcd248c56f14f545aea7e730971e6ff, type: 3}
  shotDelay: 1
  useDelay: 0
