%YAML 1.1
%TAG !u! tag:unity3d.com,2011:
--- !u!64 &2456047521777830868
MeshCollider:
  m_ObjectHideFlags: 0
  m_CorrespondingSourceObject: {fileID: 0}
  m_PrefabInstance: {fileID: 0}
  m_PrefabAsset: {fileID: 0}
  m_GameObject: {fileID: 1363933113262240367}
  m_Material: {fileID: 0}
  m_IsTrigger: 0
  m_Enabled: 1
  serializedVersion: 3
  m_Convex: 0
  m_CookingOptions: 14
  m_Mesh: {fileID: 4300000, guid: e7af58d4a7d748a4a93d385d9e9adc47, type: 3}
--- !u!1001 &1363933113262208207
PrefabInstance:
  m_ObjectHideFlags: 0
  serializedVersion: 2
  m_Modification:
    m_TransformParent: {fileID: 0}
    m_Modifications:
    - target: {fileID: 100002, guid: e7af58d4a7d748a4a93d385d9e9adc47, type: 3}
      propertyPath: m_Name
      value: Boulder1
      objectReference: {fileID: 0}
    - target: {fileID: 100002, guid: e7af58d4a7d748a4a93d385d9e9adc47, type: 3}
      propertyPath: m_StaticEditorFlags
      value: 4294967295
      objectReference: {fileID: 0}
    - target: {fileID: 100000, guid: e7af58d4a7d748a4a93d385d9e9adc47, type: 3}
      propertyPath: m_StaticEditorFlags
      value: 4294967295
      objectReference: {fileID: 0}
    - target: {fileID: 400002, guid: e7af58d4a7d748a4a93d385d9e9adc47, type: 3}
      propertyPath: m_LocalPosition.x
      value: 0
      objectReference: {fileID: 0}
    - target: {fileID: 400002, guid: e7af58d4a7d748a4a93d385d9e9adc47, type: 3}
      propertyPath: m_LocalPosition.y
      value: 0
      objectReference: {fileID: 0}
    - target: {fileID: 400002, guid: e7af58d4a7d748a4a93d385d9e9adc47, type: 3}
      propertyPath: m_LocalPosition.z
      value: 0
      objectReference: {fileID: 0}
    - target: {fileID: 400002, guid: e7af58d4a7d748a4a93d385d9e9adc47, type: 3}
      propertyPath: m_LocalRotation.x
      value: 0
      objectReference: {fileID: 0}
    - target: {fileID: 400002, guid: e7af58d4a7d748a4a93d385d9e9adc47, type: 3}
      propertyPath: m_LocalRotation.y
      value: -0
      objectReference: {fileID: 0}
    - target: {fileID: 400002, guid: e7af58d4a7d748a4a93d385d9e9adc47, type: 3}
      propertyPath: m_LocalRotation.z
      value: -0
      objectReference: {fileID: 0}
    - target: {fileID: 400002, guid: e7af58d4a7d748a4a93d385d9e9adc47, type: 3}
      propertyPath: m_LocalRotation.w
      value: 1
      objectReference: {fileID: 0}
    - target: {fileID: 400002, guid: e7af58d4a7d748a4a93d385d9e9adc47, type: 3}
      propertyPath: m_RootOrder
      value: 0
      objectReference: {fileID: 0}
    - target: {fileID: 400002, guid: e7af58d4a7d748a4a93d385d9e9adc47, type: 3}
      propertyPath: m_LocalEulerAnglesHint.x
      value: 0
      objectReference: {fileID: 0}
    - target: {fileID: 400002, guid: e7af58d4a7d748a4a93d385d9e9adc47, type: 3}
      propertyPath: m_LocalEulerAnglesHint.y
      value: 0
      objectReference: {fileID: 0}
    - target: {fileID: 400002, guid: e7af58d4a7d748a4a93d385d9e9adc47, type: 3}
      propertyPath: m_LocalEulerAnglesHint.z
      value: 0
      objectReference: {fileID: 0}
    - target: {fileID: 400002, guid: e7af58d4a7d748a4a93d385d9e9adc47, type: 3}
      propertyPath: m_LocalScale.x
      value: 3
      objectReference: {fileID: 0}
    - target: {fileID: 400002, guid: e7af58d4a7d748a4a93d385d9e9adc47, type: 3}
      propertyPath: m_LocalScale.y
      value: 3
      objectReference: {fileID: 0}
    - target: {fileID: 400002, guid: e7af58d4a7d748a4a93d385d9e9adc47, type: 3}
      propertyPath: m_LocalScale.z
      value: 3
      objectReference: {fileID: 0}
    - target: {fileID: 400000, guid: e7af58d4a7d748a4a93d385d9e9adc47, type: 3}
      propertyPath: m_LocalPosition.x
      value: 0
      objectReference: {fileID: 0}
    - target: {fileID: 400000, guid: e7af58d4a7d748a4a93d385d9e9adc47, type: 3}
      propertyPath: m_LocalPosition.y
      value: 0
      objectReference: {fileID: 0}
    - target: {fileID: 400000, guid: e7af58d4a7d748a4a93d385d9e9adc47, type: 3}
      propertyPath: m_LocalPosition.z
      value: 0
      objectReference: {fileID: 0}
    - target: {fileID: 2300000, guid: e7af58d4a7d748a4a93d385d9e9adc47, type: 3}
      propertyPath: m_Materials.Array.data[0]
      value: 
      objectReference: {fileID: 2100000, guid: b63f9170fa0c90a45a1c7649ea5007b4, type: 2}
    m_RemovedComponents: []
  m_SourcePrefab: {fileID: 100100000, guid: e7af58d4a7d748a4a93d385d9e9adc47, type: 3}
--- !u!1 &1363933113262240367 stripped
GameObject:
  m_CorrespondingSourceObject: {fileID: 100000, guid: e7af58d4a7d748a4a93d385d9e9adc47,
    type: 3}
  m_PrefabInstance: {fileID: 1363933113262208207}
  m_PrefabAsset: {fileID: 0}
