%YAML 1.1
%TAG !u! tag:unity3d.com,2011:
--- !u!64 &7966321949315009570
MeshCollider:
  m_ObjectHideFlags: 0
  m_CorrespondingSourceObject: {fileID: 0}
  m_PrefabInstance: {fileID: 0}
  m_PrefabAsset: {fileID: 0}
  m_GameObject: {fileID: 7474870325719210678}
  m_Material: {fileID: 0}
  m_IsTrigger: 0
  m_Enabled: 1
  serializedVersion: 3
  m_Convex: 0
  m_CookingOptions: 14
  m_Mesh: {fileID: -6198525040401489066, guid: 523cdce7415bf4548820671d95bc8d87, type: 3}
--- !u!1001 &3764927655124598357
PrefabInstance:
  m_ObjectHideFlags: 0
  serializedVersion: 2
  m_Modification:
    m_TransformParent: {fileID: 0}
    m_Modifications:
    - target: {fileID: -927199367670048503, guid: 523cdce7415bf4548820671d95bc8d87,
        type: 3}
      propertyPath: m_Name
      value: BunkerDPrefab
      objectReference: {fileID: 0}
    - target: {fileID: -3205534666196720413, guid: 523cdce7415bf4548820671d95bc8d87,
        type: 3}
      propertyPath: m_StaticEditorFlags
      value: 40
      objectReference: {fileID: 0}
    - target: {fileID: -3205534666196720413, guid: 523cdce7415bf4548820671d95bc8d87,
        type: 3}
      propertyPath: m_NavMeshLayer
      value: 1
      objectReference: {fileID: 0}
    - target: {fileID: -4216859302048453862, guid: 523cdce7415bf4548820671d95bc8d87,
        type: 3}
      propertyPath: m_LocalPosition.x
      value: 0
      objectReference: {fileID: 0}
    - target: {fileID: -4216859302048453862, guid: 523cdce7415bf4548820671d95bc8d87,
        type: 3}
      propertyPath: m_LocalPosition.y
      value: 0
      objectReference: {fileID: 0}
    - target: {fileID: -4216859302048453862, guid: 523cdce7415bf4548820671d95bc8d87,
        type: 3}
      propertyPath: m_LocalPosition.z
      value: 0
      objectReference: {fileID: 0}
    - target: {fileID: -4216859302048453862, guid: 523cdce7415bf4548820671d95bc8d87,
        type: 3}
      propertyPath: m_LocalRotation.x
      value: 0
      objectReference: {fileID: 0}
    - target: {fileID: -4216859302048453862, guid: 523cdce7415bf4548820671d95bc8d87,
        type: 3}
      propertyPath: m_LocalRotation.y
      value: -0
      objectReference: {fileID: 0}
    - target: {fileID: -4216859302048453862, guid: 523cdce7415bf4548820671d95bc8d87,
        type: 3}
      propertyPath: m_LocalRotation.z
      value: -0
      objectReference: {fileID: 0}
    - target: {fileID: -4216859302048453862, guid: 523cdce7415bf4548820671d95bc8d87,
        type: 3}
      propertyPath: m_LocalRotation.w
      value: 1
      objectReference: {fileID: 0}
    - target: {fileID: -4216859302048453862, guid: 523cdce7415bf4548820671d95bc8d87,
        type: 3}
      propertyPath: m_RootOrder
      value: 0
      objectReference: {fileID: 0}
    - target: {fileID: -4216859302048453862, guid: 523cdce7415bf4548820671d95bc8d87,
        type: 3}
      propertyPath: m_LocalEulerAnglesHint.x
      value: 0
      objectReference: {fileID: 0}
    - target: {fileID: -4216859302048453862, guid: 523cdce7415bf4548820671d95bc8d87,
        type: 3}
      propertyPath: m_LocalEulerAnglesHint.y
      value: 0
      objectReference: {fileID: 0}
    - target: {fileID: -4216859302048453862, guid: 523cdce7415bf4548820671d95bc8d87,
        type: 3}
      propertyPath: m_LocalEulerAnglesHint.z
      value: 0
      objectReference: {fileID: 0}
    - target: {fileID: -4216859302048453862, guid: 523cdce7415bf4548820671d95bc8d87,
        type: 3}
      propertyPath: m_LocalScale.x
      value: 10
      objectReference: {fileID: 0}
    - target: {fileID: -4216859302048453862, guid: 523cdce7415bf4548820671d95bc8d87,
        type: 3}
      propertyPath: m_LocalScale.y
      value: 10
      objectReference: {fileID: 0}
    - target: {fileID: -4216859302048453862, guid: 523cdce7415bf4548820671d95bc8d87,
        type: 3}
      propertyPath: m_LocalScale.z
      value: 10
      objectReference: {fileID: 0}
    - target: {fileID: 1826736022267667915, guid: 523cdce7415bf4548820671d95bc8d87,
        type: 3}
      propertyPath: m_Materials.Array.data[0]
      value: 
      objectReference: {fileID: 2100000, guid: f7c4ff6ad2dec49469a51dcadccad780, type: 2}
    m_RemovedComponents: []
  m_SourcePrefab: {fileID: 100100000, guid: 523cdce7415bf4548820671d95bc8d87, type: 3}
--- !u!1 &7474870325719210678 stripped
GameObject:
  m_CorrespondingSourceObject: {fileID: -3205534666196720413, guid: 523cdce7415bf4548820671d95bc8d87,
    type: 3}
  m_PrefabInstance: {fileID: 3764927655124598357}
  m_PrefabAsset: {fileID: 0}
