%YAML 1.1
%TAG !u! tag:unity3d.com,2011:
--- !u!65 &7781130971189656433
BoxCollider:
  m_ObjectHideFlags: 0
  m_CorrespondingSourceObject: {fileID: 0}
  m_PrefabInstance: {fileID: 0}
  m_PrefabAsset: {fileID: 0}
  m_GameObject: {fileID: 7653177658933085103}
  m_Material: {fileID: 0}
  m_IsTrigger: 0
  m_Enabled: 1
  serializedVersion: 2
  m_Size: {x: 4.971287, y: 2.483643, z: 2.6527736}
  m_Center: {x: 0, y: 0, z: 0}
--- !u!1001 &1807176682749483686
PrefabInstance:
  m_ObjectHideFlags: 0
  serializedVersion: 2
  m_Modification:
    m_TransformParent: {fileID: 0}
    m_Modifications:
    - target: {fileID: -927199367670048503, guid: 93f0cab8b6a670a4da6965d1feb7fa4f,
        type: 3}
      propertyPath: m_Name
      value: BunkerLogoPrefab
      objectReference: {fileID: 0}
    - target: {fileID: -4216859302048453862, guid: 93f0cab8b6a670a4da6965d1feb7fa4f,
        type: 3}
      propertyPath: m_LocalPosition.x
      value: 0
      objectReference: {fileID: 0}
    - target: {fileID: -4216859302048453862, guid: 93f0cab8b6a670a4da6965d1feb7fa4f,
        type: 3}
      propertyPath: m_LocalPosition.y
      value: 0
      objectReference: {fileID: 0}
    - target: {fileID: -4216859302048453862, guid: 93f0cab8b6a670a4da6965d1feb7fa4f,
        type: 3}
      propertyPath: m_LocalPosition.z
      value: 0
      objectReference: {fileID: 0}
    - target: {fileID: -4216859302048453862, guid: 93f0cab8b6a670a4da6965d1feb7fa4f,
        type: 3}
      propertyPath: m_LocalRotation.x
      value: 0
      objectReference: {fileID: 0}
    - target: {fileID: -4216859302048453862, guid: 93f0cab8b6a670a4da6965d1feb7fa4f,
        type: 3}
      propertyPath: m_LocalRotation.y
      value: -0
      objectReference: {fileID: 0}
    - target: {fileID: -4216859302048453862, guid: 93f0cab8b6a670a4da6965d1feb7fa4f,
        type: 3}
      propertyPath: m_LocalRotation.z
      value: -0
      objectReference: {fileID: 0}
    - target: {fileID: -4216859302048453862, guid: 93f0cab8b6a670a4da6965d1feb7fa4f,
        type: 3}
      propertyPath: m_LocalRotation.w
      value: 1
      objectReference: {fileID: 0}
    - target: {fileID: -4216859302048453862, guid: 93f0cab8b6a670a4da6965d1feb7fa4f,
        type: 3}
      propertyPath: m_RootOrder
      value: 0
      objectReference: {fileID: 0}
    - target: {fileID: -4216859302048453862, guid: 93f0cab8b6a670a4da6965d1feb7fa4f,
        type: 3}
      propertyPath: m_LocalEulerAnglesHint.x
      value: 0
      objectReference: {fileID: 0}
    - target: {fileID: -4216859302048453862, guid: 93f0cab8b6a670a4da6965d1feb7fa4f,
        type: 3}
      propertyPath: m_LocalEulerAnglesHint.y
      value: 0
      objectReference: {fileID: 0}
    - target: {fileID: -4216859302048453862, guid: 93f0cab8b6a670a4da6965d1feb7fa4f,
        type: 3}
      propertyPath: m_LocalEulerAnglesHint.z
      value: 0
      objectReference: {fileID: 0}
    - target: {fileID: -4216859302048453862, guid: 93f0cab8b6a670a4da6965d1feb7fa4f,
        type: 3}
      propertyPath: m_LocalScale.x
      value: 10
      objectReference: {fileID: 0}
    - target: {fileID: -4216859302048453862, guid: 93f0cab8b6a670a4da6965d1feb7fa4f,
        type: 3}
      propertyPath: m_LocalScale.y
      value: 10
      objectReference: {fileID: 0}
    - target: {fileID: -4216859302048453862, guid: 93f0cab8b6a670a4da6965d1feb7fa4f,
        type: 3}
      propertyPath: m_LocalScale.z
      value: 10
      objectReference: {fileID: 0}
    - target: {fileID: -1504981713932161579, guid: 93f0cab8b6a670a4da6965d1feb7fa4f,
        type: 3}
      propertyPath: m_Materials.Array.data[0]
      value: 
      objectReference: {fileID: 2100000, guid: 4222bedd21fa4684b8f3702f2940949c, type: 2}
    m_RemovedComponents: []
  m_SourcePrefab: {fileID: 100100000, guid: 93f0cab8b6a670a4da6965d1feb7fa4f, type: 3}
--- !u!1 &7653177658933085103 stripped
GameObject:
  m_CorrespondingSourceObject: {fileID: -927199367670048503, guid: 93f0cab8b6a670a4da6965d1feb7fa4f,
    type: 3}
  m_PrefabInstance: {fileID: 1807176682749483686}
  m_PrefabAsset: {fileID: 0}
