%YAML 1.1
%TAG !u! tag:unity3d.com,2011:
--- !u!64 &3973925443465627086
MeshCollider:
  m_ObjectHideFlags: 0
  m_CorrespondingSourceObject: {fileID: 0}
  m_PrefabInstance: {fileID: 0}
  m_PrefabAsset: {fileID: 0}
  m_GameObject: {fileID: 689411975514158528}
  m_Material: {fileID: 0}
  m_IsTrigger: 0
  m_Enabled: 1
  serializedVersion: 3
  m_Convex: 0
  m_CookingOptions: 14
  m_Mesh: {fileID: 6329158148709259305, guid: dae38f7db7cccf04c814cccab598bfc9, type: 3}
--- !u!65 &5631783903617297568
BoxCollider:
  m_ObjectHideFlags: 0
  m_CorrespondingSourceObject: {fileID: 0}
  m_PrefabInstance: {fileID: 0}
  m_PrefabAsset: {fileID: 0}
  m_GameObject: {fileID: 4065624544911727462}
  m_Material: {fileID: 0}
  m_IsTrigger: 0
  m_Enabled: 1
  serializedVersion: 2
  m_Size: {x: 5.7278986, y: 18.95958, z: 17.476744}
  m_Center: {x: 1.1671294, y: 6.485842, z: -0.7905495}
--- !u!1001 &2369995463993132948
PrefabInstance:
  m_ObjectHideFlags: 0
  serializedVersion: 2
  m_Modification:
    m_TransformParent: {fileID: 0}
    m_Modifications:
    - target: {fileID: -6236743471014415788, guid: dae38f7db7cccf04c814cccab598bfc9,
        type: 3}
      propertyPath: m_StaticEditorFlags
      value: 4294967295
      objectReference: {fileID: 0}
    - target: {fileID: -6236743471014415788, guid: dae38f7db7cccf04c814cccab598bfc9,
        type: 3}
      propertyPath: m_NavMeshLayer
      value: 1
      objectReference: {fileID: 0}
    - target: {fileID: -927199367670048503, guid: dae38f7db7cccf04c814cccab598bfc9,
        type: 3}
      propertyPath: m_Name
      value: GatePrefab3
      objectReference: {fileID: 0}
    - target: {fileID: -4216859302048453862, guid: dae38f7db7cccf04c814cccab598bfc9,
        type: 3}
      propertyPath: m_LocalPosition.x
      value: 0
      objectReference: {fileID: 0}
    - target: {fileID: -4216859302048453862, guid: dae38f7db7cccf04c814cccab598bfc9,
        type: 3}
      propertyPath: m_LocalPosition.y
      value: 0
      objectReference: {fileID: 0}
    - target: {fileID: -4216859302048453862, guid: dae38f7db7cccf04c814cccab598bfc9,
        type: 3}
      propertyPath: m_LocalPosition.z
      value: 0
      objectReference: {fileID: 0}
    - target: {fileID: -4216859302048453862, guid: dae38f7db7cccf04c814cccab598bfc9,
        type: 3}
      propertyPath: m_LocalRotation.x
      value: 0
      objectReference: {fileID: 0}
    - target: {fileID: -4216859302048453862, guid: dae38f7db7cccf04c814cccab598bfc9,
        type: 3}
      propertyPath: m_LocalRotation.y
      value: -0
      objectReference: {fileID: 0}
    - target: {fileID: -4216859302048453862, guid: dae38f7db7cccf04c814cccab598bfc9,
        type: 3}
      propertyPath: m_LocalRotation.z
      value: -0
      objectReference: {fileID: 0}
    - target: {fileID: -4216859302048453862, guid: dae38f7db7cccf04c814cccab598bfc9,
        type: 3}
      propertyPath: m_LocalRotation.w
      value: 1
      objectReference: {fileID: 0}
    - target: {fileID: -4216859302048453862, guid: dae38f7db7cccf04c814cccab598bfc9,
        type: 3}
      propertyPath: m_RootOrder
      value: 0
      objectReference: {fileID: 0}
    - target: {fileID: -4216859302048453862, guid: dae38f7db7cccf04c814cccab598bfc9,
        type: 3}
      propertyPath: m_LocalEulerAnglesHint.x
      value: 0
      objectReference: {fileID: 0}
    - target: {fileID: -4216859302048453862, guid: dae38f7db7cccf04c814cccab598bfc9,
        type: 3}
      propertyPath: m_LocalEulerAnglesHint.y
      value: 0
      objectReference: {fileID: 0}
    - target: {fileID: -4216859302048453862, guid: dae38f7db7cccf04c814cccab598bfc9,
        type: 3}
      propertyPath: m_LocalEulerAnglesHint.z
      value: 0
      objectReference: {fileID: 0}
    - target: {fileID: 5218053877760515484, guid: dae38f7db7cccf04c814cccab598bfc9,
        type: 3}
      propertyPath: m_Materials.Array.data[0]
      value: 
      objectReference: {fileID: 2100000, guid: 787306d300fd13444a57fab44cbfee06, type: 2}
    - target: {fileID: 6306971017694268109, guid: dae38f7db7cccf04c814cccab598bfc9,
        type: 3}
      propertyPath: m_Materials.Array.data[0]
      value: 
      objectReference: {fileID: 2100000, guid: 787306d300fd13444a57fab44cbfee06, type: 2}
    - target: {fileID: -7455685359145607950, guid: dae38f7db7cccf04c814cccab598bfc9,
        type: 3}
      propertyPath: m_StaticEditorFlags
      value: 40
      objectReference: {fileID: 0}
    - target: {fileID: -7455685359145607950, guid: dae38f7db7cccf04c814cccab598bfc9,
        type: 3}
      propertyPath: m_NavMeshLayer
      value: 1
      objectReference: {fileID: 0}
    - target: {fileID: 6292535884062368016, guid: dae38f7db7cccf04c814cccab598bfc9,
        type: 3}
      propertyPath: m_NavMeshLayer
      value: 1
      objectReference: {fileID: 0}
    m_RemovedComponents: []
  m_SourcePrefab: {fileID: 100100000, guid: dae38f7db7cccf04c814cccab598bfc9, type: 3}
--- !u!1 &689411975514158528 stripped
GameObject:
  m_CorrespondingSourceObject: {fileID: -6236743471014415788, guid: dae38f7db7cccf04c814cccab598bfc9,
    type: 3}
  m_PrefabInstance: {fileID: 2369995463993132948}
  m_PrefabAsset: {fileID: 0}
--- !u!1 &4065624544911727462 stripped
GameObject:
  m_CorrespondingSourceObject: {fileID: -7455685359145607950, guid: dae38f7db7cccf04c814cccab598bfc9,
    type: 3}
  m_PrefabInstance: {fileID: 2369995463993132948}
  m_PrefabAsset: {fileID: 0}
