%YAML 1.1
%TAG !u! tag:unity3d.com,2011:
--- !u!65 &5745205921847381464
BoxCollider:
  m_ObjectHideFlags: 0
  m_CorrespondingSourceObject: {fileID: 0}
  m_PrefabInstance: {fileID: 0}
  m_PrefabAsset: {fileID: 0}
  m_GameObject: {fileID: 2433561526699705104}
  m_Material: {fileID: 0}
  m_IsTrigger: 0
  m_Enabled: 1
  serializedVersion: 2
  m_Size: {x: 2.6328368, y: 2.0428443, z: 2.5759356}
  m_Center: {x: 0, y: 0, z: 0}
--- !u!1001 &5972989469889993241
PrefabInstance:
  m_ObjectHideFlags: 0
  serializedVersion: 2
  m_Modification:
    m_TransformParent: {fileID: 0}
    m_Modifications:
    - target: {fileID: -927199367670048503, guid: b5a60fb1f8cb9894eaf4586556a54a37,
        type: 3}
      propertyPath: m_Name
      value: RubblePrefab
      objectReference: {fileID: 0}
    - target: {fileID: -927199367670048503, guid: b5a60fb1f8cb9894eaf4586556a54a37,
        type: 3}
      propertyPath: m_StaticEditorFlags
      value: 4294967295
      objectReference: {fileID: 0}
    - target: {fileID: -927199367670048503, guid: b5a60fb1f8cb9894eaf4586556a54a37,
        type: 3}
      propertyPath: m_NavMeshLayer
      value: 1
      objectReference: {fileID: 0}
    - target: {fileID: -4216859302048453862, guid: b5a60fb1f8cb9894eaf4586556a54a37,
        type: 3}
      propertyPath: m_LocalPosition.x
      value: 0
      objectReference: {fileID: 0}
    - target: {fileID: -4216859302048453862, guid: b5a60fb1f8cb9894eaf4586556a54a37,
        type: 3}
      propertyPath: m_LocalPosition.y
      value: 0
      objectReference: {fileID: 0}
    - target: {fileID: -4216859302048453862, guid: b5a60fb1f8cb9894eaf4586556a54a37,
        type: 3}
      propertyPath: m_LocalPosition.z
      value: 0
      objectReference: {fileID: 0}
    - target: {fileID: -4216859302048453862, guid: b5a60fb1f8cb9894eaf4586556a54a37,
        type: 3}
      propertyPath: m_LocalRotation.x
      value: 0
      objectReference: {fileID: 0}
    - target: {fileID: -4216859302048453862, guid: b5a60fb1f8cb9894eaf4586556a54a37,
        type: 3}
      propertyPath: m_LocalRotation.y
      value: -0
      objectReference: {fileID: 0}
    - target: {fileID: -4216859302048453862, guid: b5a60fb1f8cb9894eaf4586556a54a37,
        type: 3}
      propertyPath: m_LocalRotation.z
      value: -0
      objectReference: {fileID: 0}
    - target: {fileID: -4216859302048453862, guid: b5a60fb1f8cb9894eaf4586556a54a37,
        type: 3}
      propertyPath: m_LocalRotation.w
      value: 1
      objectReference: {fileID: 0}
    - target: {fileID: -4216859302048453862, guid: b5a60fb1f8cb9894eaf4586556a54a37,
        type: 3}
      propertyPath: m_RootOrder
      value: 0
      objectReference: {fileID: 0}
    - target: {fileID: -4216859302048453862, guid: b5a60fb1f8cb9894eaf4586556a54a37,
        type: 3}
      propertyPath: m_LocalEulerAnglesHint.x
      value: 0
      objectReference: {fileID: 0}
    - target: {fileID: -4216859302048453862, guid: b5a60fb1f8cb9894eaf4586556a54a37,
        type: 3}
      propertyPath: m_LocalEulerAnglesHint.y
      value: 0
      objectReference: {fileID: 0}
    - target: {fileID: -4216859302048453862, guid: b5a60fb1f8cb9894eaf4586556a54a37,
        type: 3}
      propertyPath: m_LocalEulerAnglesHint.z
      value: 0
      objectReference: {fileID: 0}
    - target: {fileID: -4216859302048453862, guid: b5a60fb1f8cb9894eaf4586556a54a37,
        type: 3}
      propertyPath: m_LocalScale.x
      value: 8
      objectReference: {fileID: 0}
    - target: {fileID: -4216859302048453862, guid: b5a60fb1f8cb9894eaf4586556a54a37,
        type: 3}
      propertyPath: m_LocalScale.y
      value: 8
      objectReference: {fileID: 0}
    - target: {fileID: -4216859302048453862, guid: b5a60fb1f8cb9894eaf4586556a54a37,
        type: 3}
      propertyPath: m_LocalScale.z
      value: 8
      objectReference: {fileID: 0}
    - target: {fileID: -1504981713932161579, guid: b5a60fb1f8cb9894eaf4586556a54a37,
        type: 3}
      propertyPath: m_Materials.Array.data[0]
      value: 
      objectReference: {fileID: 2100000, guid: 83d5f5045bd497c46b6e923311d62bee, type: 2}
    m_RemovedComponents: []
  m_SourcePrefab: {fileID: 100100000, guid: b5a60fb1f8cb9894eaf4586556a54a37, type: 3}
--- !u!1 &2433561526699705104 stripped
GameObject:
  m_CorrespondingSourceObject: {fileID: -927199367670048503, guid: b5a60fb1f8cb9894eaf4586556a54a37,
    type: 3}
  m_PrefabInstance: {fileID: 5972989469889993241}
  m_PrefabAsset: {fileID: 0}
