%YAML 1.1
%TAG !u! tag:unity3d.com,2011:
--- !u!64 &1496067835323535734
MeshCollider:
  m_ObjectHideFlags: 0
  m_CorrespondingSourceObject: {fileID: 0}
  m_PrefabInstance: {fileID: 0}
  m_PrefabAsset: {fileID: 0}
  m_GameObject: {fileID: 2500975081119188755}
  m_Material: {fileID: 0}
  m_IsTrigger: 0
  m_Enabled: 1
  serializedVersion: 3
  m_Convex: 0
  m_CookingOptions: 14
  m_Mesh: {fileID: 4300000, guid: a4295fd7257da4649be2ae9e21e0bda0, type: 3}
--- !u!1001 &2500975081119220147
PrefabInstance:
  m_ObjectHideFlags: 0
  serializedVersion: 2
  m_Modification:
    m_TransformParent: {fileID: 0}
    m_Modifications:
    - target: {fileID: 100002, guid: a4295fd7257da4649be2ae9e21e0bda0, type: 3}
      propertyPath: m_Name
      value: SteppedRock
      objectReference: {fileID: 0}
    - target: {fileID: 100002, guid: a4295fd7257da4649be2ae9e21e0bda0, type: 3}
      propertyPath: m_StaticEditorFlags
      value: 4294967295
      objectReference: {fileID: 0}
    - target: {fileID: 100000, guid: a4295fd7257da4649be2ae9e21e0bda0, type: 3}
      propertyPath: m_StaticEditorFlags
      value: 4294967295
      objectReference: {fileID: 0}
    - target: {fileID: 100000, guid: a4295fd7257da4649be2ae9e21e0bda0, type: 3}
      propertyPath: m_NavMeshLayer
      value: 1
      objectReference: {fileID: 0}
    - target: {fileID: 400002, guid: a4295fd7257da4649be2ae9e21e0bda0, type: 3}
      propertyPath: m_LocalPosition.x
      value: 0
      objectReference: {fileID: 0}
    - target: {fileID: 400002, guid: a4295fd7257da4649be2ae9e21e0bda0, type: 3}
      propertyPath: m_LocalPosition.y
      value: 0
      objectReference: {fileID: 0}
    - target: {fileID: 400002, guid: a4295fd7257da4649be2ae9e21e0bda0, type: 3}
      propertyPath: m_LocalPosition.z
      value: 0
      objectReference: {fileID: 0}
    - target: {fileID: 400002, guid: a4295fd7257da4649be2ae9e21e0bda0, type: 3}
      propertyPath: m_LocalRotation.x
      value: 0
      objectReference: {fileID: 0}
    - target: {fileID: 400002, guid: a4295fd7257da4649be2ae9e21e0bda0, type: 3}
      propertyPath: m_LocalRotation.y
      value: -0
      objectReference: {fileID: 0}
    - target: {fileID: 400002, guid: a4295fd7257da4649be2ae9e21e0bda0, type: 3}
      propertyPath: m_LocalRotation.z
      value: -0
      objectReference: {fileID: 0}
    - target: {fileID: 400002, guid: a4295fd7257da4649be2ae9e21e0bda0, type: 3}
      propertyPath: m_LocalRotation.w
      value: 1
      objectReference: {fileID: 0}
    - target: {fileID: 400002, guid: a4295fd7257da4649be2ae9e21e0bda0, type: 3}
      propertyPath: m_RootOrder
      value: 0
      objectReference: {fileID: 0}
    - target: {fileID: 400002, guid: a4295fd7257da4649be2ae9e21e0bda0, type: 3}
      propertyPath: m_LocalEulerAnglesHint.x
      value: 0
      objectReference: {fileID: 0}
    - target: {fileID: 400002, guid: a4295fd7257da4649be2ae9e21e0bda0, type: 3}
      propertyPath: m_LocalEulerAnglesHint.y
      value: 0
      objectReference: {fileID: 0}
    - target: {fileID: 400002, guid: a4295fd7257da4649be2ae9e21e0bda0, type: 3}
      propertyPath: m_LocalEulerAnglesHint.z
      value: 0
      objectReference: {fileID: 0}
    - target: {fileID: 400002, guid: a4295fd7257da4649be2ae9e21e0bda0, type: 3}
      propertyPath: m_LocalScale.x
      value: 3
      objectReference: {fileID: 0}
    - target: {fileID: 400002, guid: a4295fd7257da4649be2ae9e21e0bda0, type: 3}
      propertyPath: m_LocalScale.y
      value: 3
      objectReference: {fileID: 0}
    - target: {fileID: 400002, guid: a4295fd7257da4649be2ae9e21e0bda0, type: 3}
      propertyPath: m_LocalScale.z
      value: 3
      objectReference: {fileID: 0}
    - target: {fileID: 400000, guid: a4295fd7257da4649be2ae9e21e0bda0, type: 3}
      propertyPath: m_LocalPosition.x
      value: 0
      objectReference: {fileID: 0}
    - target: {fileID: 400000, guid: a4295fd7257da4649be2ae9e21e0bda0, type: 3}
      propertyPath: m_LocalPosition.y
      value: 0
      objectReference: {fileID: 0}
    - target: {fileID: 400000, guid: a4295fd7257da4649be2ae9e21e0bda0, type: 3}
      propertyPath: m_LocalPosition.z
      value: 0
      objectReference: {fileID: 0}
    - target: {fileID: 2300000, guid: a4295fd7257da4649be2ae9e21e0bda0, type: 3}
      propertyPath: m_Materials.Array.data[0]
      value: 
      objectReference: {fileID: 2100000, guid: 972c96d8cf62f53499ff45f32fd979ab, type: 2}
    m_RemovedComponents: []
  m_SourcePrefab: {fileID: 100100000, guid: a4295fd7257da4649be2ae9e21e0bda0, type: 3}
--- !u!1 &2500975081119188755 stripped
GameObject:
  m_CorrespondingSourceObject: {fileID: 100000, guid: a4295fd7257da4649be2ae9e21e0bda0,
    type: 3}
  m_PrefabInstance: {fileID: 2500975081119220147}
  m_PrefabAsset: {fileID: 0}
