%YAML 1.1
%TAG !u! tag:unity3d.com,2011:
--- !u!64 &6986201229058047012
MeshCollider:
  m_ObjectHideFlags: 0
  m_CorrespondingSourceObject: {fileID: 0}
  m_PrefabInstance: {fileID: 0}
  m_PrefabAsset: {fileID: 0}
  m_GameObject: {fileID: 5212499047480719601}
  m_Material: {fileID: 0}
  m_IsTrigger: 0
  m_Enabled: 1
  serializedVersion: 3
  m_Convex: 0
  m_CookingOptions: 14
  m_Mesh: {fileID: 8733429697405204941, guid: 9f8b9b4ecdbc11c42b416f912ed7281f, type: 3}
--- !u!1001 &4285009372098667000
PrefabInstance:
  m_ObjectHideFlags: 0
  serializedVersion: 2
  m_Modification:
    m_TransformParent: {fileID: 0}
    m_Modifications:
    - target: {fileID: -927199367670048503, guid: 9f8b9b4ecdbc11c42b416f912ed7281f,
        type: 3}
      propertyPath: m_Name
      value: Wall2
      objectReference: {fileID: 0}
    - target: {fileID: -927199367670048503, guid: 9f8b9b4ecdbc11c42b416f912ed7281f,
        type: 3}
      propertyPath: m_StaticEditorFlags
      value: 4294967295
      objectReference: {fileID: 0}
    - target: {fileID: -927199367670048503, guid: 9f8b9b4ecdbc11c42b416f912ed7281f,
        type: 3}
      propertyPath: m_NavMeshLayer
      value: 1
      objectReference: {fileID: 0}
    - target: {fileID: -4216859302048453862, guid: 9f8b9b4ecdbc11c42b416f912ed7281f,
        type: 3}
      propertyPath: m_LocalPosition.x
      value: 0
      objectReference: {fileID: 0}
    - target: {fileID: -4216859302048453862, guid: 9f8b9b4ecdbc11c42b416f912ed7281f,
        type: 3}
      propertyPath: m_LocalPosition.y
      value: 0
      objectReference: {fileID: 0}
    - target: {fileID: -4216859302048453862, guid: 9f8b9b4ecdbc11c42b416f912ed7281f,
        type: 3}
      propertyPath: m_LocalPosition.z
      value: 0
      objectReference: {fileID: 0}
    - target: {fileID: -4216859302048453862, guid: 9f8b9b4ecdbc11c42b416f912ed7281f,
        type: 3}
      propertyPath: m_LocalRotation.x
      value: 0
      objectReference: {fileID: 0}
    - target: {fileID: -4216859302048453862, guid: 9f8b9b4ecdbc11c42b416f912ed7281f,
        type: 3}
      propertyPath: m_LocalRotation.y
      value: -0
      objectReference: {fileID: 0}
    - target: {fileID: -4216859302048453862, guid: 9f8b9b4ecdbc11c42b416f912ed7281f,
        type: 3}
      propertyPath: m_LocalRotation.z
      value: -0
      objectReference: {fileID: 0}
    - target: {fileID: -4216859302048453862, guid: 9f8b9b4ecdbc11c42b416f912ed7281f,
        type: 3}
      propertyPath: m_LocalRotation.w
      value: 1
      objectReference: {fileID: 0}
    - target: {fileID: -4216859302048453862, guid: 9f8b9b4ecdbc11c42b416f912ed7281f,
        type: 3}
      propertyPath: m_RootOrder
      value: 0
      objectReference: {fileID: 0}
    - target: {fileID: -4216859302048453862, guid: 9f8b9b4ecdbc11c42b416f912ed7281f,
        type: 3}
      propertyPath: m_LocalEulerAnglesHint.x
      value: 0
      objectReference: {fileID: 0}
    - target: {fileID: -4216859302048453862, guid: 9f8b9b4ecdbc11c42b416f912ed7281f,
        type: 3}
      propertyPath: m_LocalEulerAnglesHint.y
      value: 0
      objectReference: {fileID: 0}
    - target: {fileID: -4216859302048453862, guid: 9f8b9b4ecdbc11c42b416f912ed7281f,
        type: 3}
      propertyPath: m_LocalEulerAnglesHint.z
      value: 0
      objectReference: {fileID: 0}
    - target: {fileID: -4216859302048453862, guid: 9f8b9b4ecdbc11c42b416f912ed7281f,
        type: 3}
      propertyPath: m_LocalScale.x
      value: 3
      objectReference: {fileID: 0}
    - target: {fileID: -4216859302048453862, guid: 9f8b9b4ecdbc11c42b416f912ed7281f,
        type: 3}
      propertyPath: m_LocalScale.y
      value: 3
      objectReference: {fileID: 0}
    - target: {fileID: -4216859302048453862, guid: 9f8b9b4ecdbc11c42b416f912ed7281f,
        type: 3}
      propertyPath: m_LocalScale.z
      value: 3
      objectReference: {fileID: 0}
    - target: {fileID: -1504981713932161579, guid: 9f8b9b4ecdbc11c42b416f912ed7281f,
        type: 3}
      propertyPath: m_Materials.Array.data[0]
      value: 
      objectReference: {fileID: 2100000, guid: 8f1cefe5cb7d9c948a1af3830776fe34, type: 2}
    m_RemovedComponents: []
  m_SourcePrefab: {fileID: 100100000, guid: 9f8b9b4ecdbc11c42b416f912ed7281f, type: 3}
--- !u!1 &5212499047480719601 stripped
GameObject:
  m_CorrespondingSourceObject: {fileID: -927199367670048503, guid: 9f8b9b4ecdbc11c42b416f912ed7281f,
    type: 3}
  m_PrefabInstance: {fileID: 4285009372098667000}
  m_PrefabAsset: {fileID: 0}
