%YAML 1.1
%TAG !u! tag:unity3d.com,2011:
--- !u!64 &4790405425306142484
MeshCollider:
  m_ObjectHideFlags: 0
  m_CorrespondingSourceObject: {fileID: 0}
  m_PrefabInstance: {fileID: 0}
  m_PrefabAsset: {fileID: 0}
  m_GameObject: {fileID: 6452851249174802165}
  m_Material: {fileID: 0}
  m_IsTrigger: 0
  m_Enabled: 1
  serializedVersion: 3
  m_Convex: 0
  m_CookingOptions: 14
  m_Mesh: {fileID: 2148810954916310119, guid: b3c333dc012c01b44b86243288e85997, type: 3}
--- !u!1001 &3075060329612359676
PrefabInstance:
  m_ObjectHideFlags: 0
  serializedVersion: 2
  m_Modification:
    m_TransformParent: {fileID: 0}
    m_Modifications:
    - target: {fileID: -927199367670048503, guid: b3c333dc012c01b44b86243288e85997,
        type: 3}
      propertyPath: m_Name
      value: BarrelPrefab
      objectReference: {fileID: 0}
    - target: {fileID: -4216859302048453862, guid: b3c333dc012c01b44b86243288e85997,
        type: 3}
      propertyPath: m_LocalPosition.x
      value: 0
      objectReference: {fileID: 0}
    - target: {fileID: -4216859302048453862, guid: b3c333dc012c01b44b86243288e85997,
        type: 3}
      propertyPath: m_LocalPosition.y
      value: 0
      objectReference: {fileID: 0}
    - target: {fileID: -4216859302048453862, guid: b3c333dc012c01b44b86243288e85997,
        type: 3}
      propertyPath: m_LocalPosition.z
      value: 0
      objectReference: {fileID: 0}
    - target: {fileID: -4216859302048453862, guid: b3c333dc012c01b44b86243288e85997,
        type: 3}
      propertyPath: m_LocalRotation.x
      value: 0
      objectReference: {fileID: 0}
    - target: {fileID: -4216859302048453862, guid: b3c333dc012c01b44b86243288e85997,
        type: 3}
      propertyPath: m_LocalRotation.y
      value: -0
      objectReference: {fileID: 0}
    - target: {fileID: -4216859302048453862, guid: b3c333dc012c01b44b86243288e85997,
        type: 3}
      propertyPath: m_LocalRotation.z
      value: -0
      objectReference: {fileID: 0}
    - target: {fileID: -4216859302048453862, guid: b3c333dc012c01b44b86243288e85997,
        type: 3}
      propertyPath: m_LocalRotation.w
      value: 1
      objectReference: {fileID: 0}
    - target: {fileID: -4216859302048453862, guid: b3c333dc012c01b44b86243288e85997,
        type: 3}
      propertyPath: m_RootOrder
      value: 0
      objectReference: {fileID: 0}
    - target: {fileID: -4216859302048453862, guid: b3c333dc012c01b44b86243288e85997,
        type: 3}
      propertyPath: m_LocalEulerAnglesHint.x
      value: 0
      objectReference: {fileID: 0}
    - target: {fileID: -4216859302048453862, guid: b3c333dc012c01b44b86243288e85997,
        type: 3}
      propertyPath: m_LocalEulerAnglesHint.y
      value: 0
      objectReference: {fileID: 0}
    - target: {fileID: -4216859302048453862, guid: b3c333dc012c01b44b86243288e85997,
        type: 3}
      propertyPath: m_LocalEulerAnglesHint.z
      value: 0
      objectReference: {fileID: 0}
    - target: {fileID: -1504981713932161579, guid: b3c333dc012c01b44b86243288e85997,
        type: 3}
      propertyPath: m_Materials.Array.data[0]
      value: 
      objectReference: {fileID: 2100000, guid: 33dd988ccaca8054cb46f6ce3c1b8929, type: 2}
    m_RemovedComponents: []
  m_SourcePrefab: {fileID: 100100000, guid: b3c333dc012c01b44b86243288e85997, type: 3}
--- !u!1 &6452851249174802165 stripped
GameObject:
  m_CorrespondingSourceObject: {fileID: -927199367670048503, guid: b3c333dc012c01b44b86243288e85997,
    type: 3}
  m_PrefabInstance: {fileID: 3075060329612359676}
  m_PrefabAsset: {fileID: 0}
