%YAML 1.1
%TAG !u! tag:unity3d.com,2011:
--- !u!64 &683281049457853234
MeshCollider:
  m_ObjectHideFlags: 0
  m_CorrespondingSourceObject: {fileID: 0}
  m_PrefabInstance: {fileID: 0}
  m_PrefabAsset: {fileID: 0}
  m_GameObject: {fileID: 1963089922053412200}
  m_Material: {fileID: 0}
  m_IsTrigger: 0
  m_Enabled: 1
  serializedVersion: 3
  m_Convex: 0
  m_CookingOptions: 14
  m_Mesh: {fileID: -2279334706522210217, guid: d055a482b4cbc9242965793518b1a42c, type: 3}
--- !u!1001 &7502899073073794145
PrefabInstance:
  m_ObjectHideFlags: 0
  serializedVersion: 2
  m_Modification:
    m_TransformParent: {fileID: 0}
    m_Modifications:
    - target: {fileID: -927199367670048503, guid: d055a482b4cbc9242965793518b1a42c,
        type: 3}
      propertyPath: m_Name
      value: CameraPrefab
      objectReference: {fileID: 0}
    - target: {fileID: -4216859302048453862, guid: d055a482b4cbc9242965793518b1a42c,
        type: 3}
      propertyPath: m_LocalPosition.x
      value: 0
      objectReference: {fileID: 0}
    - target: {fileID: -4216859302048453862, guid: d055a482b4cbc9242965793518b1a42c,
        type: 3}
      propertyPath: m_LocalPosition.y
      value: 0
      objectReference: {fileID: 0}
    - target: {fileID: -4216859302048453862, guid: d055a482b4cbc9242965793518b1a42c,
        type: 3}
      propertyPath: m_LocalPosition.z
      value: 0
      objectReference: {fileID: 0}
    - target: {fileID: -4216859302048453862, guid: d055a482b4cbc9242965793518b1a42c,
        type: 3}
      propertyPath: m_LocalRotation.x
      value: 0
      objectReference: {fileID: 0}
    - target: {fileID: -4216859302048453862, guid: d055a482b4cbc9242965793518b1a42c,
        type: 3}
      propertyPath: m_LocalRotation.y
      value: -0
      objectReference: {fileID: 0}
    - target: {fileID: -4216859302048453862, guid: d055a482b4cbc9242965793518b1a42c,
        type: 3}
      propertyPath: m_LocalRotation.z
      value: -0
      objectReference: {fileID: 0}
    - target: {fileID: -4216859302048453862, guid: d055a482b4cbc9242965793518b1a42c,
        type: 3}
      propertyPath: m_LocalRotation.w
      value: 1
      objectReference: {fileID: 0}
    - target: {fileID: -4216859302048453862, guid: d055a482b4cbc9242965793518b1a42c,
        type: 3}
      propertyPath: m_RootOrder
      value: 0
      objectReference: {fileID: 0}
    - target: {fileID: -4216859302048453862, guid: d055a482b4cbc9242965793518b1a42c,
        type: 3}
      propertyPath: m_LocalEulerAnglesHint.x
      value: 0
      objectReference: {fileID: 0}
    - target: {fileID: -4216859302048453862, guid: d055a482b4cbc9242965793518b1a42c,
        type: 3}
      propertyPath: m_LocalEulerAnglesHint.y
      value: 0
      objectReference: {fileID: 0}
    - target: {fileID: -4216859302048453862, guid: d055a482b4cbc9242965793518b1a42c,
        type: 3}
      propertyPath: m_LocalEulerAnglesHint.z
      value: 0
      objectReference: {fileID: 0}
    - target: {fileID: -1504981713932161579, guid: d055a482b4cbc9242965793518b1a42c,
        type: 3}
      propertyPath: m_Materials.Array.data[0]
      value: 
      objectReference: {fileID: 2100000, guid: 9b4004bf8be99294686a86aa297972a9, type: 2}
    m_RemovedComponents: []
  m_SourcePrefab: {fileID: 100100000, guid: d055a482b4cbc9242965793518b1a42c, type: 3}
--- !u!1 &1963089922053412200 stripped
GameObject:
  m_CorrespondingSourceObject: {fileID: -927199367670048503, guid: d055a482b4cbc9242965793518b1a42c,
    type: 3}
  m_PrefabInstance: {fileID: 7502899073073794145}
  m_PrefabAsset: {fileID: 0}
