%YAML 1.1
%TAG !u! tag:unity3d.com,2011:
--- !u!1001 &2755014852738021594
PrefabInstance:
  m_ObjectHideFlags: 0
  serializedVersion: 2
  m_Modification:
    m_TransformParent: {fileID: 0}
    m_Modifications:
    - target: {fileID: -927199367670048503, guid: ae39ce50e7d0cbf41b8ac89ee01edfbf,
        type: 3}
      propertyPath: m_Name
      value: GruntDead
      objectReference: {fileID: 0}
    - target: {fileID: -4216859302048453862, guid: ae39ce50e7d0cbf41b8ac89ee01edfbf,
        type: 3}
      propertyPath: m_LocalPosition.x
      value: 0
      objectReference: {fileID: 0}
    - target: {fileID: -4216859302048453862, guid: ae39ce50e7d0cbf41b8ac89ee01edfbf,
        type: 3}
      propertyPath: m_LocalPosition.y
      value: 0
      objectReference: {fileID: 0}
    - target: {fileID: -4216859302048453862, guid: ae39ce50e7d0cbf41b8ac89ee01edfbf,
        type: 3}
      propertyPath: m_LocalPosition.z
      value: 0
      objectReference: {fileID: 0}
    - target: {fileID: -4216859302048453862, guid: ae39ce50e7d0cbf41b8ac89ee01edfbf,
        type: 3}
      propertyPath: m_LocalRotation.x
      value: 0
      objectReference: {fileID: 0}
    - target: {fileID: -4216859302048453862, guid: ae39ce50e7d0cbf41b8ac89ee01edfbf,
        type: 3}
      propertyPath: m_LocalRotation.y
      value: 0
      objectReference: {fileID: 0}
    - target: {fileID: -4216859302048453862, guid: ae39ce50e7d0cbf41b8ac89ee01edfbf,
        type: 3}
      propertyPath: m_LocalRotation.z
      value: 0
      objectReference: {fileID: 0}
    - target: {fileID: -4216859302048453862, guid: ae39ce50e7d0cbf41b8ac89ee01edfbf,
        type: 3}
      propertyPath: m_LocalRotation.w
      value: 1
      objectReference: {fileID: 0}
    - target: {fileID: -4216859302048453862, guid: ae39ce50e7d0cbf41b8ac89ee01edfbf,
        type: 3}
      propertyPath: m_RootOrder
      value: 0
      objectReference: {fileID: 0}
    - target: {fileID: -4216859302048453862, guid: ae39ce50e7d0cbf41b8ac89ee01edfbf,
        type: 3}
      propertyPath: m_LocalEulerAnglesHint.x
      value: 0
      objectReference: {fileID: 0}
    - target: {fileID: -4216859302048453862, guid: ae39ce50e7d0cbf41b8ac89ee01edfbf,
        type: 3}
      propertyPath: m_LocalEulerAnglesHint.y
      value: 0
      objectReference: {fileID: 0}
    - target: {fileID: -4216859302048453862, guid: ae39ce50e7d0cbf41b8ac89ee01edfbf,
        type: 3}
      propertyPath: m_LocalEulerAnglesHint.z
      value: 0
      objectReference: {fileID: 0}
    - target: {fileID: -4216859302048453862, guid: ae39ce50e7d0cbf41b8ac89ee01edfbf,
        type: 3}
      propertyPath: m_LocalScale.x
      value: 2
      objectReference: {fileID: 0}
    - target: {fileID: -4216859302048453862, guid: ae39ce50e7d0cbf41b8ac89ee01edfbf,
        type: 3}
      propertyPath: m_LocalScale.y
      value: 2
      objectReference: {fileID: 0}
    - target: {fileID: -4216859302048453862, guid: ae39ce50e7d0cbf41b8ac89ee01edfbf,
        type: 3}
      propertyPath: m_LocalScale.z
      value: 2
      objectReference: {fileID: 0}
    - target: {fileID: -3882615227896948318, guid: ae39ce50e7d0cbf41b8ac89ee01edfbf,
        type: 3}
      propertyPath: m_Materials.Array.data[0]
      value: 
      objectReference: {fileID: 2100000, guid: 62651c79c87b56b41807c00ef328caac, type: 2}
    - target: {fileID: 8844128181312263535, guid: ae39ce50e7d0cbf41b8ac89ee01edfbf,
        type: 3}
      propertyPath: m_Materials.Array.data[0]
      value: 
      objectReference: {fileID: 2100000, guid: 9179076cabd317343ae4646fbba9c1c2, type: 2}
    m_RemovedComponents: []
  m_SourcePrefab: {fileID: 100100000, guid: ae39ce50e7d0cbf41b8ac89ee01edfbf, type: 3}
