%YAML 1.1
%TAG !u! tag:unity3d.com,2011:
--- !u!1045 &1
EditorBuildSettings:
  m_ObjectHideFlags: 0
  serializedVersion: 2
  m_Scenes:
  - enabled: 1
    path: Assets/Scenes/MAINMENU.unity
    guid: 90b37f95253ef7748bf7107ba3723a72
  - enabled: 1
    path: Assets/Scenes/Levels/0.5-Garage.unity
    guid: 9f7c4741117267047833410b196fa35d
  - enabled: 1
    path: Assets/Scenes/Levels/2-Infiltrate.unity
    guid: 02b59d56f7ba1cd4fa0579cc572a4f82
  m_configObjects: {}
