%YAML 1.1
%TAG !u! tag:unity3d.com,2011:
--- !u!1 &2022431947796012363
GameObject:
  m_ObjectHideFlags: 0
  m_CorrespondingSourceObject: {fileID: 0}
  m_PrefabInstance: {fileID: 0}
  m_PrefabAsset: {fileID: 0}
  serializedVersion: 6
  m_Component:
  - component: {fileID: 8391253626061370664}
  - component: {fileID: 8674028503926441048}
  - component: {fileID: 7918325545275733685}
  m_Layer: 0
  m_Name: LightArmour
  m_TagString: Untagged
  m_Icon: {fileID: 0}
  m_NavMeshLayer: 0
  m_StaticEditorFlags: 0
  m_IsActive: 1
--- !u!4 &8391253626061370664
Transform:
  m_ObjectHideFlags: 0
  m_CorrespondingSourceObject: {fileID: 0}
  m_PrefabInstance: {fileID: 0}
  m_PrefabAsset: {fileID: 0}
  m_GameObject: {fileID: 2022431947796012363}
  m_LocalRotation: {x: 0, y: 0, z: 0, w: 1}
  m_LocalPosition: {x: 0, y: 0, z: 0}
  m_LocalScale: {x: 1, y: 1, z: 1}
  m_Children: []
  m_Father: {fileID: 0}
  m_RootOrder: 0
  m_LocalEulerAnglesHint: {x: 0, y: 0, z: 0}
--- !u!65 &8674028503926441048
BoxCollider:
  m_ObjectHideFlags: 0
  m_CorrespondingSourceObject: {fileID: 0}
  m_PrefabInstance: {fileID: 0}
  m_PrefabAsset: {fileID: 0}
  m_GameObject: {fileID: 2022431947796012363}
  m_Material: {fileID: 0}
  m_IsTrigger: 0
  m_Enabled: 1
  serializedVersion: 2
  m_Size: {x: 0, y: 0, z: 0}
  m_Center: {x: 0, y: 0, z: 0}
--- !u!114 &7918325545275733685
MonoBehaviour:
  m_ObjectHideFlags: 0
  m_CorrespondingSourceObject: {fileID: 0}
  m_PrefabInstance: {fileID: 0}
  m_PrefabAsset: {fileID: 0}
  m_GameObject: {fileID: 2022431947796012363}
  m_Enabled: 1
  m_EditorHideFlags: 0
  m_Script: {fileID: 11500000, guid: 13d55cb2ab2cad8418533a5d4918b430, type: 3}
  m_Name: 
  m_EditorClassIdentifier: 
  uiName: Armour
  OnDeath:
    m_PersistentCalls:
      m_Calls: []
  OnHealthChange:
    m_PersistentCalls:
      m_Calls: []
  health:
    maxValue: 0
    minValue: 0
    currentValue: 0
  partType: 0
  equipment: {fileID: 0}
  left: 0
  excludeFromCustomiser: 0
  attatchIndex: 0
  armour: 0
