%YAML 1.1
%TAG !u! tag:unity3d.com,2011:
--- !u!114 &11400000
MonoBehaviour:
  m_ObjectHideFlags: 0
  m_CorrespondingSourceObject: {fileID: 0}
  m_PrefabInstance: {fileID: 0}
  m_PrefabAsset: {fileID: 0}
  m_GameObject: {fileID: 0}
  m_Enabled: 1
  m_EditorHideFlags: 0
  m_Script: {fileID: 11500000, guid: 98ceeda71e87d3e44ae9ce4a88c39678, type: 3}
  m_Name: MainReloads
  m_EditorClassIdentifier: 
  sounds:
  - {fileID: 8300000, guid: 441f4fbb50edbd14681f0611a87f94fc, type: 3}
  - {fileID: 8300000, guid: 1dcf18390dffea14c8f313b499a6c71a, type: 3}
  - {fileID: 8300000, guid: e96917fc3be9ffb4bb699eb921378517, type: 3}
